<svg width="60" height="60" viewBox="0 0 60 60" fill="none" xmlns="http://www.w3.org/2000/svg">
<path d="M47.477 5H22.5245C19.747 5 17.4995 7.2475 17.4995 10.025V24.1175L5.74446 35.7225C5.39225 36.0708 5.15147 36.516 5.05267 37.0014C4.95387 37.4868 5.00151 37.9906 5.18955 38.4489C5.37758 38.9072 5.69753 39.2994 6.10879 39.5755C6.52006 39.8517 7.00409 39.9994 7.49946 40V52.5C7.49946 53.163 7.76286 53.7989 8.2317 54.2678C8.70054 54.7366 9.33642 55 9.99946 55H49.9995C50.6625 55 51.2984 54.7366 51.7672 54.2678C52.2361 53.7989 52.4995 53.163 52.4995 52.5V10.0225C52.4995 7.2475 50.2545 5 47.477 5ZM27.3045 37.7775V50H12.4995V36.08L19.967 28.7075L27.3045 36.215V37.7775ZM32.4995 22.5H27.4995V17.5H32.4995V22.5ZM42.4995 42.5H37.4995V37.5H42.4995V42.5ZM42.4995 32.5H37.4995V27.5H42.4995V32.5ZM42.4995 22.5H37.4995V17.5H42.4995V22.5Z" fill="url(#paint0_linear)"/>
<path d="M17.5 37.5H22.5V42.5H17.5V37.5Z" fill="url(#paint1_linear)"/>
<defs>
<linearGradient id="paint0_linear" x1="28.751" y1="5" x2="28.751" y2="55" gradientUnits="userSpaceOnUse">
<stop stop-color="white"/>
<stop offset="1" stop-color="#DDDDDD"/>
</linearGradient>
<linearGradient id="paint1_linear" x1="20" y1="37.5" x2="20" y2="42.5" gradientUnits="userSpaceOnUse">
<stop stop-color="white"/>
<stop offset="1" stop-color="#DDDDDD"/>
</linearGradient>
</defs>
</svg>
