<svg width="360" height="207" viewBox="0 0 360 207" fill="none" xmlns="http://www.w3.org/2000/svg">
<g clip-path="url(#clip0)">
<path opacity="0.5" d="M89.3359 135.567C67.5699 128.064 42.6831 121.713 22.3472 132.495C19.7699 133.861 17.2303 135.582 15.8416 138.142C12.1737 144.877 18.0038 153.611 15.1623 160.729C12.3208 167.848 1.62649 171.432 2.50196 179.037C2.73215 181.024 3.81139 182.824 5.08309 184.375C13.0491 194.084 27.6529 195.066 39.9963 192.657C52.3397 190.248 64.4114 185.252 76.9774 185.881C89.0529 186.502 100.162 192.28 111.226 197.144C129.879 205.366 151.664 211.265 170.302 203.002C178.842 199.215 185.902 192.766 194.076 188.264C205.091 182.252 217.752 179.934 230.189 181.653C238.491 182.82 246.415 185.756 254.54 187.782C272.993 192.378 292.253 192.228 311.268 192.047C314.808 192.013 318.404 191.972 321.796 190.963C326.819 189.457 330.962 185.99 334.951 182.598C340.193 178.144 345.713 173.25 347.404 166.591C349.4 158.685 345.268 150.283 339.14 144.911C333.011 139.538 325.177 136.602 317.532 133.771C315.645 133.078 313.63 132.374 311.698 132.898C310.43 133.244 309.362 134.087 308.415 134.995C302.989 140.205 298.404 149.018 291.004 147.602C288.362 147.098 286.2 145.264 284.11 143.57C272.947 134.535 257.932 127.56 244.46 132.551C234.608 136.203 227.653 145.581 217.668 148.89C210.566 151.246 202.849 150.226 195.377 150.685C184.51 151.348 173.932 155.18 163.049 154.947C135.298 154.352 112.177 127.88 84.5397 130.402C82.3737 130.598 80.0114 131.095 78.6831 132.804" fill="#23AD46"/>
<path d="M54.3395 110.385C54.3395 110.385 31.2791 124.273 73.8037 145.663C73.8037 145.663 83.1735 128.309 72.815 114.158C70.8048 111.4 67.8508 109.474 64.5126 108.744C61.1743 108.015 57.6836 108.531 54.7018 110.197L54.3395 110.385Z" fill="#23AD46"/>
<path d="M54.6152 110.096C54.6152 110.096 74.3586 125.154 73.8077 145.652" stroke="#535461" stroke-miterlimit="10"/>
<path d="M346.094 98.8169C350.766 115.859 330.838 164.411 330.838 164.411C330.838 164.411 288.906 132.74 284.23 115.697C283.007 111.611 282.615 107.322 283.077 103.083C283.539 98.8435 284.846 94.739 286.921 91.0106C288.996 87.2822 291.796 84.0051 295.159 81.3719C298.521 78.7387 302.377 76.8026 306.5 75.6772C310.623 74.5519 314.93 74.26 319.168 74.8188C323.406 75.3777 327.489 76.7759 331.177 78.9313C334.865 81.0867 338.085 83.9558 340.646 87.3701C343.207 90.7844 345.058 94.6749 346.09 98.8131L346.094 98.8169Z" fill="#23AD46"/>
<path opacity="0.1" d="M346.094 98.8169C350.766 115.859 330.838 164.411 330.838 164.411C330.838 164.411 288.906 132.74 284.23 115.697C283.007 111.611 282.615 107.322 283.077 103.083C283.539 98.8435 284.846 94.739 286.921 91.0106C288.996 87.2822 291.796 84.0051 295.159 81.3719C298.521 78.7387 302.377 76.8026 306.5 75.6772C310.623 74.5519 314.93 74.26 319.168 74.8188C323.406 75.3777 327.489 76.7759 331.177 78.9313C334.865 81.0867 338.085 83.9558 340.646 87.3701C343.207 90.7844 345.058 94.6749 346.09 98.8131L346.094 98.8169Z" fill="black"/>
<path d="M306.872 76.4966C306.872 76.4966 332.973 115.806 331.023 164.505" stroke="#535461" stroke-miterlimit="10"/>
<path d="M352.755 129.965C352.755 129.965 329.087 117.12 332.083 164.535C332.083 164.535 351.826 163.831 358.834 147.764C360.204 144.639 360.377 141.121 359.321 137.878C358.264 134.634 356.052 131.889 353.102 130.165L352.755 129.965Z" fill="#23AD46"/>
<path d="M353.143 130.048C353.143 130.048 350.087 154.661 332.083 164.535" stroke="#535461" stroke-miterlimit="10"/>
<path d="M6.2488 124.68C6.2488 124.68 -16.8229 138.563 25.7054 159.943C25.7054 159.943 35.0752 142.588 24.7167 128.437C22.7066 125.679 19.7526 123.754 16.4143 123.024C13.076 122.294 9.58535 122.811 6.60352 124.476L6.2488 124.68Z" fill="#23AD46"/>
<path d="M6.51318 124.39C6.51318 124.39 26.2566 139.448 25.7056 159.946" stroke="#535461" stroke-miterlimit="10"/>
<path d="M294.125 142.753H269.879C270.437 141.634 270.726 140.401 270.725 139.151V29.0137C270.725 26.8661 269.869 24.8065 268.347 23.2878C266.825 21.7692 264.76 20.9161 262.608 20.9161H74.9358C72.7831 20.9161 70.7185 21.7692 69.1963 23.2878C67.674 24.8065 66.8188 26.8661 66.8188 29.0137V139.154C66.8169 140.405 67.1063 141.638 67.6641 142.757H42.5622C42.2793 142.757 41.9992 142.813 41.7379 142.921C41.4767 143.03 41.2395 143.188 41.0399 143.389C40.8404 143.589 40.6825 143.826 40.5753 144.087C40.468 144.349 40.4136 144.628 40.4151 144.911V146.639C40.4151 149.816 41.6801 152.862 43.932 155.109C46.1838 157.355 49.238 158.617 52.4226 158.617H284.264C287.449 158.617 290.503 157.355 292.755 155.109C295.007 152.862 296.272 149.816 296.272 146.639V144.911C296.274 144.628 296.22 144.348 296.113 144.086C296.006 143.825 295.848 143.587 295.648 143.386C295.449 143.186 295.211 143.027 294.95 142.918C294.688 142.809 294.408 142.753 294.125 142.753ZM144.732 149.605L142.641 147.252H194.257L191.955 149.609L144.732 149.605Z" fill="url(#paint0_linear)"/>
<path d="M259.63 22.4746H77.8941C73.0465 22.4746 69.1167 26.395 69.1167 31.2311V137.193C69.1167 142.029 73.0465 145.95 77.8941 145.95H259.63C264.477 145.95 268.407 142.029 268.407 137.193V31.2311C268.407 26.395 264.477 22.4746 259.63 22.4746Z" fill="#535461"/>
<path d="M263.793 40.4731H73.3135V141.345H263.793V40.4731Z" fill="white"/>
<path d="M168.555 33.3581C169.482 33.3581 170.234 32.608 170.234 31.6828C170.234 30.7576 169.482 30.0076 168.555 30.0076C167.627 30.0076 166.875 30.7576 166.875 31.6828C166.875 32.608 167.627 33.3581 168.555 33.3581Z" fill="white"/>
<path d="M197.963 141.553L191.419 148.25H145.283L139.37 141.553H45.4116C44.8551 141.553 44.3215 141.773 43.928 142.166C43.5345 142.558 43.3135 143.091 43.3135 143.646V145.332C43.3135 148.437 44.5499 151.415 46.7508 153.611C48.9517 155.807 51.9368 157.04 55.0493 157.04H281.638C283.179 157.04 284.705 156.737 286.129 156.149C287.553 155.56 288.847 154.698 289.936 153.611C291.026 152.524 291.891 151.233 292.48 149.813C293.07 148.392 293.374 146.87 293.374 145.332V143.646C293.374 143.091 293.153 142.558 292.759 142.166C292.366 141.773 291.832 141.553 291.276 141.553H197.963Z" fill="#535461"/>
<path d="M97.6489 46.7525V132.555H239.875" stroke="#535461" stroke-width="2" stroke-miterlimit="10"/>
<path opacity="0.5" d="M124.917 106.606H110.234V129.208H124.917V106.606Z" fill="#23AD46"/>
<path opacity="0.7" d="M150.09 86.5142H135.407V129.208H150.09V86.5142Z" fill="#23AD46"/>
<path opacity="0.5" d="M175.264 98.6512H160.581V129.205H175.264V98.6512Z" fill="#23AD46"/>
<path opacity="0.8" d="M200.438 79.8169H185.755V129.208H200.438V79.8169Z" fill="#23AD46"/>
<path d="M225.611 62.2363H210.928V129.205H225.611V62.2363Z" fill="#23AD46"/>
<path d="M117.366 92.7935L142.959 69.773L168.132 91.5361L192.887 65.1689L218.061 54.7033" stroke="#535461" stroke-width="2" stroke-miterlimit="10"/>
<path d="M117.366 95.7223C118.987 95.7223 120.302 94.411 120.302 92.7935C120.302 91.1759 118.987 89.8646 117.366 89.8646C115.745 89.8646 114.43 91.1759 114.43 92.7935C114.43 94.411 115.745 95.7223 117.366 95.7223Z" fill="#23AD46"/>
<path d="M167.713 94.0471C169.335 94.0471 170.649 92.7358 170.649 91.1182C170.649 89.5007 169.335 88.1894 167.713 88.1894C166.092 88.1894 164.777 89.5007 164.777 91.1182C164.777 92.7358 166.092 94.0471 167.713 94.0471Z" fill="#23AD46"/>
<path d="M193.305 68.0977C194.927 68.0977 196.241 66.7865 196.241 65.1689C196.241 63.5513 194.927 62.24 193.305 62.24C191.684 62.24 190.37 63.5513 190.37 65.1689C190.37 66.7865 191.684 68.0977 193.305 68.0977Z" fill="#23AD46"/>
<path d="M142.958 72.2802C144.58 72.2802 145.894 70.9689 145.894 69.3514C145.894 67.7338 144.58 66.4225 142.958 66.4225C141.337 66.4225 140.022 67.7338 140.022 69.3514C140.022 70.9689 141.337 72.2802 142.958 72.2802Z" fill="#23AD46"/>
<path d="M218.06 57.6322C219.682 57.6322 220.996 56.3209 220.996 54.7033C220.996 53.0858 219.682 51.7745 218.06 51.7745C216.439 51.7745 215.125 53.0858 215.125 54.7033C215.125 56.3209 216.439 57.6322 218.06 57.6322Z" fill="#23AD46"/>
<path d="M327.286 145.219C325.739 144.711 323.445 144.124 321.626 144.331C319.894 143.702 315.822 142.072 313.041 139.618C313.121 137.204 313.06 134.788 312.856 132.382C311.434 116.243 314.634 105.604 314.634 105.604C314.634 105.604 317.147 97.4879 316.871 90.7531C317.034 91.058 317.124 91.2387 317.124 91.2387C317.343 85.4299 319.328 79.4179 320.815 75.6721C320.871 75.6559 320.927 75.6358 320.981 75.6119L322.641 71.6816C322.773 71.4524 322.879 71.2085 322.954 70.9551L323.222 70.3339L323.143 70.3C323.169 70.1984 323.196 70.0892 323.222 69.98C324.283 65.5039 325.109 54.8878 325.109 54.8878C327.954 43.7145 321.2 36.8177 321.2 36.8177L309.736 26.9771C309.793 27.1052 309.831 27.2409 309.849 27.3799L309.754 27.2971C309.592 26.834 309.415 26.2806 309.241 25.6482C309.646 25.3585 310.024 25.0348 310.373 24.6807C311.677 23.4526 312.573 21.8568 312.943 20.1067C313.165 18.7381 313.222 17.3478 313.113 15.9656L312.924 11.2185C312.916 10.2894 312.821 9.36315 312.641 8.45151C311.777 4.68692 307.909 2.0517 304.026 1.87853C302.791 1.87135 301.556 1.93672 300.328 2.07429C299.324 2.15658 298.316 2.17795 297.309 2.13828C297.194 2.14434 297.081 2.11403 296.985 2.0517C296.897 1.96474 296.847 1.84729 296.845 1.72418C296.825 1.50385 296.85 1.2818 296.919 1.07149C296.988 0.861178 297.099 0.666982 297.245 0.500682C297.397 0.36778 297.574 0.26665 297.766 0.203282L297.49 0.267279C297.626 0.160437 297.779 0.077669 297.943 0.022583C296.937 0.199134 295.969 0.549472 295.083 1.05785C294.839 1.21783 294.614 1.40611 294.415 1.61877C293.887 2.08066 293.544 2.7169 293.449 3.41072C292.976 3.01249 292.623 2.49121 292.43 1.90488C292.37 1.66512 292.37 1.4143 292.43 1.17455C292.362 1.25737 292.297 1.3427 292.234 1.43054C292.234 1.40419 292.234 1.37784 292.234 1.35148C291.504 2.24574 290.988 3.29356 290.724 4.41586C290.623 4.29433 290.546 4.15386 290.5 4.00263C290.453 3.8514 290.437 3.69242 290.453 3.53495C290.396 3.71189 290.343 3.88882 290.294 4.06575C290.277 3.94842 290.277 3.82922 290.294 3.71188C289.85 5.06908 289.649 6.49391 289.702 7.9207C289.702 9.34372 290.336 11.5611 291.864 12.0618C291.943 12.0881 292.022 12.1069 292.105 12.1258C291.246 13.4577 290.731 14.9817 290.607 16.5609C290.483 18.1402 290.754 19.7255 291.396 21.1746C292.037 22.6237 293.029 23.8914 294.282 24.864C295.536 25.8366 297.011 26.4838 298.577 26.7474C298.602 26.9206 298.626 27.1026 298.649 27.2933H298.709C298.751 27.6698 298.785 28.0839 298.807 28.5055C298.422 28.8825 297.999 29.2204 297.547 29.5144C296.264 30.271 294.833 30.7435 293.351 30.8998C291.581 31.0383 289.861 31.5517 288.305 32.4056C286.475 33.4258 284.456 34.9128 283.822 36.7198C282.766 39.7315 276.947 44.4184 273.045 45.0019L271.656 44.9229L271.554 44.8928V44.9191L271.215 44.9003H271.196H271.105V44.9191L270.754 44.9003C270.754 44.9003 270.72 45.0622 270.671 45.3483C268.709 44.6744 264.539 42.8072 259.113 37.8944C253.075 32.4244 244.905 33.5011 241.754 34.19C241.647 34.2136 241.55 34.2693 241.475 34.3496C241.4 34.4298 241.352 34.5309 241.337 34.6393C241.321 34.7477 241.339 34.8583 241.388 34.9563C241.437 35.0542 241.515 35.135 241.611 35.1877C242.883 35.8841 244.853 36.8968 245.762 37.0097C245.762 37.0097 243.875 38.9786 245.883 40.0214C246.124 40.1376 246.392 40.1853 246.658 40.1594C246.924 40.1335 247.178 40.035 247.392 39.8746C248.366 39.1631 251.071 40.7743 254.992 41.6138C254.992 41.6138 266.056 53.0356 271.551 54.7899C271.677 55.0393 271.817 55.2819 271.969 55.5165L272.309 55.4901V55.5165H272.453L272.494 55.8929C272.494 55.8929 281.037 55.4449 283.815 52.3504C284.011 52.1748 284.192 51.982 284.354 51.7745L281.385 89.044H281.411L281.385 89.3978H283.57C283.756 93.9815 283.558 98.5728 282.977 103.124V127.42C282.977 127.42 282.864 129.559 287.317 132.691C291.985 135.933 296.484 139.413 300.796 143.115L301.336 143.582C300.517 151.017 298.803 164.874 297.373 165.39L298.256 165.544C296.747 167.453 292.46 172.697 291.154 172.836C289.554 173.013 288.486 175.498 291.154 176.029C296.481 176.949 301.959 176.41 307.003 174.47C307.507 174.272 307.929 173.912 308.202 173.446C308.476 172.981 308.585 172.437 308.513 171.903L307.996 167.987C308.094 168.042 308.173 168.124 308.222 168.225C308.577 169.29 308.222 166.805 308.222 166.805C309.684 162.118 310.833 157.339 311.66 152.5L316.943 157.055C316.943 157.055 317.049 156.923 317.234 156.679C318.528 159.608 320.837 165.601 320.32 169.99C319.611 176.014 326.358 170.698 325.652 167.152C325.079 164.283 327.645 152.124 328.645 147.576C328.753 147.085 328.673 146.571 328.422 146.136C328.171 145.7 327.766 145.373 327.286 145.219Z" fill="url(#paint1_linear)"/>
<path d="M272.075 46.8391C272.075 46.8391 267.041 45.9732 259.577 39.2196C253.672 33.8776 245.706 34.9279 242.634 35.6018C242.529 35.6244 242.434 35.6783 242.361 35.7565C242.288 35.8346 242.241 35.9332 242.226 36.039C242.21 36.1447 242.228 36.2526 242.276 36.3481C242.324 36.4435 242.4 36.522 242.494 36.573C243.736 37.2507 245.66 38.2408 246.562 38.3537C246.562 38.3537 244.702 40.2736 246.679 41.3014C246.916 41.4174 247.18 41.4654 247.443 41.4402C247.705 41.4149 247.956 41.3173 248.166 41.1583C249.117 40.4656 251.758 42.0392 255.589 42.8562C255.589 42.8562 270.517 58.2684 273.989 55.6558L272.075 46.8391Z" fill="#FEC3BE"/>
<path d="M297.777 25.8854C297.777 25.8854 299.166 31.7732 297.777 35.9293L304.026 36.7952L309.581 34.0244V30.3878C309.581 30.3878 306.977 24.8463 307.672 18.439L297.777 25.8854Z" fill="#FEC3BE"/>
<path d="M315.472 153.505C315.472 153.505 320 162.337 319.291 168.225C318.581 174.113 325.192 168.917 324.498 165.454C323.936 162.653 326.441 150.772 327.419 146.352C327.525 145.875 327.449 145.375 327.206 144.95C326.964 144.525 326.571 144.205 326.106 144.052C324.019 143.367 320.524 142.528 318.77 143.811C316.177 145.712 315.472 153.505 315.472 153.505Z" fill="#3F3636"/>
<path d="M298.298 163.203C298.298 163.203 292.396 170.822 290.834 170.995C289.272 171.169 288.23 173.593 290.834 174.112C296.033 175.015 301.38 174.495 306.306 172.607C306.799 172.415 307.213 172.063 307.482 171.609C307.751 171.154 307.859 170.623 307.789 170.099L306.792 162.683L298.298 163.203Z" fill="#3F3636"/>
<path d="M288.577 82.3355L282.917 83.0884C283.694 89.684 283.671 96.3489 282.849 102.939V126.656C282.849 126.656 282.739 128.745 287.087 131.783C291.645 134.945 296.038 138.338 300.249 141.948L316 155.561C316 155.561 322.249 147.941 321.381 143.439C321.381 143.439 310.966 140.148 309.577 134.78C308.781 131.708 304.743 129.133 301.438 127.514C299.36 126.508 297.689 124.822 296.704 122.737C295.719 120.653 295.479 118.295 296.022 116.055C296.216 115.277 296.514 114.528 296.909 113.83C299.687 108.981 303.679 98.0715 303.679 98.0715L296.041 83.5477L288.577 82.3355Z" fill="#4D4981"/>
<path opacity="0.05" d="M288.577 82.3355L282.917 83.0884C283.694 89.684 283.671 96.3489 282.849 102.939V126.656C282.849 126.656 282.739 128.745 287.087 131.783C291.645 134.945 296.038 138.338 300.249 141.948L316 155.561C316 155.561 322.249 147.941 321.381 143.439C321.381 143.439 310.966 140.148 309.577 134.78C308.781 131.708 304.743 129.133 301.438 127.514C299.36 126.508 297.689 124.822 296.704 122.737C295.719 120.653 295.479 118.295 296.022 116.055C296.216 115.277 296.514 114.528 296.909 113.83C299.687 108.981 303.679 98.0715 303.679 98.0715L296.041 83.5477L288.577 82.3355Z" fill="black"/>
<path d="M296.91 163.734C296.91 163.734 307.151 165.465 307.498 166.504C307.846 167.543 307.498 165.119 307.498 165.119C307.498 165.119 313.4 147.282 312.027 131.527C310.653 115.773 313.763 105.379 313.763 105.379C313.763 105.379 317.408 93.6029 315.325 86.8492C313.242 80.0955 291.37 83.0394 291.37 83.0394C291.37 83.0394 299.008 100.876 298.834 109.361C298.834 109.361 299.702 134.991 301.264 137.935C301.249 137.92 298.819 163.03 296.91 163.734Z" fill="#4D4981"/>
<path d="M298.113 30.3878C298.113 30.3878 299.155 36.7876 309.57 34.0244L302.642 86.6647C302.642 86.6647 282.506 87.3574 282.679 84.933L286.83 53.0733L298.113 30.3878Z" fill="white"/>
<path opacity="0.1" d="M298.385 30.0415C297.029 31.3735 295.262 32.2104 293.37 32.4169C291.642 32.5491 289.962 33.047 288.442 33.8776C286.657 34.8752 284.668 36.3246 284.064 38.0902C282.849 41.5536 275.211 47.2683 271.74 46.0561L272.955 56.4463C272.955 56.4463 282.849 55.9268 284.585 52.1171L281.638 89.1945H284.242C284.242 89.1945 285.63 79.1506 286.672 77.0725C287.713 74.9945 289.796 63.5652 289.97 60.7944C290.144 58.0237 292.747 42.0919 295.004 39.3363L298.4 31.1106L298.385 30.0415Z" fill="black"/>
<path opacity="0.1" d="M298.385 30.561C296.833 31.7715 294.978 32.5334 293.022 32.7633C291.295 32.8982 289.616 33.3987 288.098 34.2315C286.313 35.2291 284.324 36.6784 283.721 38.444C282.505 41.9075 274.868 47.6221 271.396 46.4099L272.611 56.8002C272.611 56.8002 282.505 56.2807 284.241 52.4709L281.29 89.5258H283.894C283.894 89.5258 285.283 79.4819 286.324 77.4038C287.366 75.3258 289.449 63.8965 289.622 61.1257C289.796 58.355 292.4 42.4232 294.656 39.6675L298.385 31.5962V30.561Z" fill="black"/>
<path d="M298.385 30.2146C296.834 31.4252 294.979 32.187 293.023 32.4169C291.295 32.549 289.615 33.047 288.094 33.8776C286.31 34.8752 284.321 36.3246 283.717 38.0902C282.502 41.5536 274.864 47.2682 271.393 46.056L272.608 56.4463C272.608 56.4463 282.502 55.9268 284.238 52.117L281.291 89.1945H283.894C283.894 89.1945 285.283 79.1506 286.325 77.0725C287.366 74.9945 289.449 63.5652 289.623 60.7944C289.796 58.0237 292.4 42.0919 294.657 39.3362L298.389 31.2838L298.385 30.2146Z" fill="#336257"/>
<path opacity="0.1" d="M307.238 23.5475C307.011 21.9062 307.464 20.8822 307.672 18.9585L297.777 26.4049C297.777 26.4049 298.015 27.41 298.196 28.882C298.695 28.9624 299.2 29.0027 299.706 29.0024C303.14 29.0024 305.611 26.3258 307.238 23.5475Z" fill="black"/>
<path d="M299.687 28.4867C304.863 28.4867 309.06 24.3 309.06 19.1354C309.06 13.9709 304.863 9.78418 299.687 9.78418C294.51 9.78418 290.313 13.9709 290.313 19.1354C290.313 24.3 294.51 28.4867 299.687 28.4867Z" fill="#FEC3BE"/>
<path opacity="0.1" d="M289.457 9.96864C289.397 8.39163 289.653 6.81856 290.212 5.34195C290.056 5.57427 289.991 5.85474 290.027 6.13153C290.063 6.40832 290.198 6.66274 290.408 6.84778C290.71 5.23846 291.538 3.77432 292.762 2.68414C292.095 2.79332 291.751 3.61776 291.917 4.2728C292.143 4.91261 292.544 5.47619 293.076 5.89911C293.019 4.90902 293.676 3.98293 294.506 3.44083C295.371 2.94517 296.316 2.60375 297.298 2.43192C296.961 2.55122 296.674 2.77842 296.48 3.07806C296.286 3.3777 296.197 3.73293 296.227 4.08833C296.23 4.20908 296.28 4.32391 296.366 4.40833C296.461 4.46851 296.571 4.4975 296.683 4.49115C297.661 4.52874 298.64 4.50737 299.615 4.42715C300.814 4.29253 302.02 4.22843 303.227 4.23516C307 4.39327 310.793 6.96449 311.638 10.635C311.813 11.5256 311.905 12.4304 311.913 13.3379L312.098 17.9722C312.206 19.3242 312.15 20.6841 311.932 22.0229C311.671 23.2588 311.139 24.4219 310.376 25.4292C309.612 26.4365 308.634 27.2633 307.513 27.8505C306.151 25.8816 306.03 23.3518 305.559 21.0064C305.484 20.4652 305.283 19.9492 304.97 19.5006C304.809 19.2788 304.582 19.1125 304.322 19.0248C304.062 18.9371 303.78 18.9324 303.517 19.0112C303.008 19.2145 302.789 19.99 303.212 20.3363C302.834 20.7806 302.129 20.4493 301.702 20.054C300.511 18.927 299.691 17.4659 299.351 15.864C299.181 15.0584 299.012 14.0645 298.219 13.7897C297.946 13.715 297.662 13.6958 297.381 13.7332C295.729 13.8462 293.144 14.5276 291.544 14.0043C290.076 13.5262 289.457 11.3578 289.457 9.96864Z" fill="black"/>
<path d="M289.63 9.79547C289.57 8.21847 289.827 6.6454 290.385 5.16879C290.23 5.40111 290.164 5.68158 290.2 5.95837C290.236 6.23516 290.372 6.48958 290.581 6.67463C290.883 5.0653 291.711 3.60116 292.936 2.51099C292.268 2.62016 291.924 3.44461 292.091 4.09965C292.316 4.73945 292.718 5.30303 293.249 5.72595C293.192 4.73586 293.849 3.80977 294.679 3.26767C295.544 2.772 296.489 2.43059 297.472 2.25876C297.135 2.37806 296.847 2.60526 296.653 2.9049C296.459 3.20454 296.37 3.55978 296.4 3.91518C296.403 4.03593 296.453 4.15076 296.54 4.23517C296.634 4.29536 296.745 4.32433 296.857 4.31799C297.834 4.35558 298.813 4.33421 299.789 4.25399C300.988 4.11937 302.193 4.05526 303.4 4.062C307.174 4.22011 310.966 6.79133 311.811 10.4618C311.986 11.3524 312.079 12.2572 312.087 13.1648L312.272 17.799C312.379 19.151 312.323 20.511 312.106 21.8497C311.844 23.0856 311.313 24.2487 310.549 25.256C309.785 26.2634 308.808 27.0901 307.687 27.6773C306.324 25.7084 306.204 23.1786 305.732 20.8333C305.658 20.292 305.456 19.776 305.143 19.3274C304.982 19.1056 304.755 18.9393 304.495 18.8517C304.235 18.764 303.954 18.7592 303.691 18.838C303.181 19.0413 302.962 19.8168 303.385 20.1632C303.008 20.6074 302.302 20.2761 301.875 19.8808C300.685 18.7538 299.865 17.2927 299.524 15.6908C299.355 14.8852 299.185 13.8914 298.392 13.6165C298.12 13.5418 297.835 13.5226 297.555 13.5601C295.902 13.673 293.317 14.3544 291.717 13.8311C290.249 13.3493 289.63 11.1846 289.63 9.79547Z" fill="#492815"/>
<path opacity="0.1" d="M270.944 46.0598C270.944 46.0598 269.555 52.4596 272.159 56.4501L273.634 56.3296L272.83 46.1652L270.944 46.0598Z" fill="black"/>
<path d="M271.321 46.0598C271.321 46.0598 269.932 52.4596 272.536 56.4501L274.011 56.3296L273.207 46.1652L271.321 46.0598Z" fill="#336257"/>
<path opacity="0.1" d="M308.627 28.5846L319.823 38.1956C319.823 38.1956 326.419 44.9493 323.642 55.8591C323.642 55.8591 322.426 71.7908 321.038 72.4835C321.038 72.4835 316.177 82.1811 315.83 91.3592C315.83 91.3592 309.321 78.2847 306.37 86.2506C303.419 94.2165 296.559 95.3421 296.559 95.3421L300.377 48.2245C300.377 48.2245 310.015 31.5134 308.627 28.5846Z" fill="black"/>
<path d="M308.974 28.5846L320.17 38.1956C320.17 38.1956 326.766 44.9493 323.989 55.8591C323.989 55.8591 322.774 71.7908 321.385 72.4835C321.385 72.4835 316.525 82.1811 316.177 91.3592C316.177 91.3592 309.321 77.5921 306.366 85.5579C303.411 93.5238 296.906 95.3459 296.906 95.3459L300.725 48.247C300.725 48.247 310.362 31.5134 308.974 28.5846Z" fill="#336257"/>
<path d="M314.094 69.1782C314.094 69.1782 316.872 67.2733 321.385 72.4685L310.276 92.5563L306.543 86.9358C306.543 86.9358 314.442 71.4294 314.094 69.1782Z" fill="#FEC3BE"/>
<path opacity="0.1" d="M311.404 70.3038C311.404 70.3038 317.547 77.1855 319.943 76.0825L322.162 70.9287L313.834 67.3599L311.404 70.3038Z" fill="black"/>
<path d="M311.404 69.9574C311.404 69.9574 317.547 76.8391 319.943 75.7361L322.162 70.5824L313.834 67.0135L311.404 69.9574Z" fill="#336257"/>
<path opacity="0.1" d="M306.921 85.6219C306.921 85.6219 309.845 91.6001 311.404 91.9465L309.139 94.544L305.841 88.3099L306.921 85.6219Z" fill="black"/>
<path d="M306.747 85.8064C306.747 85.8064 309.671 91.7846 311.23 92.1309L308.966 94.7285L305.66 88.483L306.747 85.8064Z" fill="#4D4981"/>
<path opacity="0.1" d="M312.272 48.8306C312.272 48.8306 312.619 61.2989 311.23 65.9745L312.272 48.8306Z" fill="black"/>
<path opacity="0.1" d="M284.151 51.255C284.151 51.255 286.234 50.5623 286.234 48.8306L284.151 51.255Z" fill="black"/>
<path d="M31.2039 53.3405C31.2039 53.3405 21.3095 73.7597 27.8076 97.9246C34.3058 122.09 32.2416 151.005 25.7624 158.158" stroke="#535461" stroke-width="2" stroke-miterlimit="10"/>
<path d="M31.2039 56.0661C32.7107 56.0661 33.9322 54.8475 33.9322 53.3443C33.9322 51.8411 32.7107 50.6225 31.2039 50.6225C29.6971 50.6225 28.4756 51.8411 28.4756 53.3443C28.4756 54.8475 29.6971 56.0661 31.2039 56.0661Z" fill="#23AD46"/>
<path d="M27.0903 66.4752C27.0903 66.4752 37.3469 68.3199 40.0752 64.5929" stroke="#535461" stroke-width="2" stroke-miterlimit="10"/>
<path d="M26.1172 72.4044C26.1172 72.4044 19.9473 65.5943 20.287 61.5097" stroke="#535461" stroke-width="2" stroke-miterlimit="10"/>
<path d="M25.5923 84.8803C25.5923 84.8803 31.2036 86.356 36.3244 75.4688" stroke="#535461" stroke-width="2" stroke-miterlimit="10"/>
<path d="M27.0902 93.953C27.0902 93.953 13.128 84.9895 14.8299 79.2071" stroke="#535461" stroke-width="2" stroke-miterlimit="10"/>
<path d="M29.272 104.212C29.272 104.212 39.0531 95.5529 38.0305 87.0337" stroke="#535461" stroke-width="2" stroke-miterlimit="10"/>
<path d="M30.3358 110.242C30.3358 110.242 17.883 106.771 18.2604 101.328" stroke="#535461" stroke-width="2" stroke-miterlimit="10"/>
<path d="M31.2036 117.429C31.2036 117.429 39.0489 110.178 40.0715 105.759" stroke="#535461" stroke-width="2" stroke-miterlimit="10"/>
<path d="M31.7509 129.758C31.7509 129.758 23.7018 120.384 23.3584 115.622" stroke="#535461" stroke-width="2" stroke-miterlimit="10"/>
<path d="M31.751 137.517C31.751 137.517 40.7585 127.533 41.4378 122.771" stroke="#535461" stroke-width="2" stroke-miterlimit="10"/>
<path d="M20.2869 64.9129C21.7937 64.9129 23.0152 63.6943 23.0152 62.1911C23.0152 60.6879 21.7937 59.4693 20.2869 59.4693C18.7801 59.4693 17.5586 60.6879 17.5586 62.1911C17.5586 63.6943 18.7801 64.9129 20.2869 64.9129Z" fill="#23AD46"/>
<path d="M17.219 104.05C18.7258 104.05 19.9473 102.831 19.9473 101.328C19.9473 99.8246 18.7258 98.606 17.219 98.606C15.7122 98.606 14.4907 99.8246 14.4907 101.328C14.4907 102.831 15.7122 104.05 17.219 104.05Z" fill="#23AD46"/>
<path d="M14.8304 81.9289C16.3372 81.9289 17.5587 80.7103 17.5587 79.2071C17.5587 77.7039 16.3372 76.4853 14.8304 76.4853C13.3236 76.4853 12.1021 77.7039 12.1021 79.2071C12.1021 80.7103 13.3236 81.9289 14.8304 81.9289Z" fill="#23AD46"/>
<path d="M40.0755 67.2959C41.5823 67.2959 42.8038 66.0773 42.8038 64.5741C42.8038 63.0709 41.5823 61.8523 40.0755 61.8523C38.5687 61.8523 37.3472 63.0709 37.3472 64.5741C37.3472 66.0773 38.5687 67.2959 40.0755 67.2959Z" fill="#23AD46"/>
<path d="M40.0755 109.154C41.5823 109.154 42.8038 107.936 42.8038 106.433C42.8038 104.929 41.5823 103.711 40.0755 103.711C38.5687 103.711 37.3472 104.929 37.3472 106.433C37.3472 107.936 38.5687 109.154 40.0755 109.154Z" fill="#23AD46"/>
<path d="M35.6414 78.1869C37.1482 78.1869 38.3697 76.9683 38.3697 75.4651C38.3697 73.9619 37.1482 72.7433 35.6414 72.7433C34.1346 72.7433 32.9131 73.9619 32.9131 75.4651C32.9131 76.9683 34.1346 78.1869 35.6414 78.1869Z" fill="#23AD46"/>
<path d="M41.0979 127.194C42.6047 127.194 43.8262 125.976 43.8262 124.473C43.8262 122.969 42.6047 121.751 41.0979 121.751C39.5911 121.751 38.3696 122.969 38.3696 124.473C38.3696 125.976 39.5911 127.194 41.0979 127.194Z" fill="#23AD46"/>
<path d="M22.6756 120.045C24.1824 120.045 25.4039 118.827 25.4039 117.324C25.4039 115.82 24.1824 114.602 22.6756 114.602C21.1688 114.602 19.9473 115.82 19.9473 117.324C19.9473 118.827 21.1688 120.045 22.6756 120.045Z" fill="#23AD46"/>
<path d="M38.3699 89.7555C39.8767 89.7555 41.0982 88.5369 41.0982 87.0337C41.0982 85.5305 39.8767 84.3119 38.3699 84.3119C36.8631 84.3119 35.6416 85.5305 35.6416 87.0337C35.6416 88.5369 36.8631 89.7555 38.3699 89.7555Z" fill="#23AD46"/>
</g>
<defs>
<linearGradient id="paint0_linear" x1="168.343" y1="158.602" x2="168.343" y2="20.9123" gradientUnits="userSpaceOnUse">
<stop stop-color="#808080" stop-opacity="0.25"/>
<stop offset="0.54" stop-color="#808080" stop-opacity="0.12"/>
<stop offset="1" stop-color="#808080" stop-opacity="0.1"/>
</linearGradient>
<linearGradient id="paint1_linear" x1="76972.9" y1="113589" x2="76972.9" y2="30889.9" gradientUnits="userSpaceOnUse">
<stop stop-color="#808080" stop-opacity="0.25"/>
<stop offset="0.54" stop-color="#808080" stop-opacity="0.12"/>
<stop offset="1" stop-color="#808080" stop-opacity="0.1"/>
</linearGradient>
<clipPath id="clip0">
<rect width="360" height="207" fill="white"/>
</clipPath>
</defs>
</svg>
